EESchema Schematic File Version 4
EELAYER 30 0
EELAYER END
$Descr A4 11693 8268
encoding utf-8
Sheet 1 1
Title ""
Date ""
Rev ""
Comp ""
Comment1 ""
Comment2 ""
Comment3 ""
Comment4 ""
$EndDescr
$Comp
L MCU_ST_STM32F0:STM32F072C8Tx U1
U 1 1 5E2D97DC
P 5450 2550
F 0 "U1" H 4950 1050 50  0000 C CNN
F 1 "STM32F072C8Tx" H 5900 1100 50  0000 C CNN
F 2 "Package_QFP:LQFP-48_7x7mm_P0.5mm" H 4850 1150 50  0001 R CNN
F 3 "http://www.st.com/st-web-ui/static/active/en/resource/technical/document/datasheet/DM00090510.pdf" H 5450 2550 50  0001 C CNN
	1    5450 2550
	1    0    0    -1  
$EndComp
$Comp
L Device:C C4
U 1 1 5E2DBD98
P 3500 2850
F 0 "C4" V 3550 2700 50  0000 L CNN
F 1 "100n" V 3550 2900 50  0000 L CNN
F 2 "Capacitor_SMD:C_0603_1608Metric" H 3538 2700 50  0001 C CNN
F 3 "~" H 3500 2850 50  0001 C CNN
	1    3500 2850
	1    0    0    -1  
$EndComp
Wire Wire Line
	3500 2650 3500 2700
$Comp
L power:GND #PWR09
U 1 1 5E2DC5F7
P 3350 3200
F 0 "#PWR09" H 3350 2950 50  0001 C CNN
F 1 "GND" H 3355 3027 50  0000 C CNN
F 2 "" H 3350 3200 50  0001 C CNN
F 3 "" H 3350 3200 50  0001 C CNN
	1    3350 3200
	1    0    0    -1  
$EndComp
$Comp
L Switch:SW_Push SW1
U 1 1 5E2DCE5D
P 3200 2900
F 0 "SW1" V 3246 2852 50  0000 R CNN
F 1 "PTS636 SM25F" H 3500 3050 50  0000 R CNN
F 2 "Button_Switch_SMD:SW_Push_1P1T_NO_Vertical_Wuerth_434133025816" H 3200 3100 50  0001 C CNN
F 3 "https://dznh3ojzb2azq.cloudfront.net/products/Tactile/PTS636/documents/datasheet.pdf" H 3200 3100 50  0001 C CNN
F 4 "Reset" V 3050 2750 50  0000 C CNN "Name"
	1    3200 2900
	0    -1   -1   0   
$EndComp
Wire Wire Line
	3200 3100 3200 3150
Wire Wire Line
	3200 3150 3350 3150
Wire Wire Line
	3500 3150 3500 3000
Wire Wire Line
	3350 3200 3350 3150
Connection ~ 3350 3150
Wire Wire Line
	3350 3150 3500 3150
Wire Wire Line
	3500 2650 3200 2650
Wire Wire Line
	3200 2650 3200 2700
Text Label 4550 1250 2    50   ~ 0
~RST
Text Label 4550 1450 2    50   ~ 0
BOOT0
Wire Wire Line
	3500 2650 3500 2500
Connection ~ 3500 2650
$Comp
L Device:Crystal_GND24 Y1
U 1 1 5E2E45CD
P 3750 1700
F 0 "Y1" V 3900 1550 50  0000 R CNN
F 1 "ABM3B-8MHz-B2-T" V 3600 1650 50  0000 R CNN
F 2 "Crystal:Crystal_SMD_3225-4Pin_3.2x2.5mm" H 3750 1700 50  0001 C CNN
F 3 "~" H 3750 1700 50  0001 C CNN
	1    3750 1700
	0    -1   -1   0   
$EndComp
$Comp
L Device:C C5
U 1 1 5E2E515C
P 3550 1500
F 0 "C5" V 3400 1400 50  0000 C CNN
F 1 "30p" V 3500 1400 50  0000 C CNN
F 2 "Capacitor_SMD:C_0402_1005Metric" H 3588 1350 50  0001 C CNN
F 3 "~" H 3550 1500 50  0001 C CNN
	1    3550 1500
	0    1    1    0   
$EndComp
$Comp
L Device:C C6
U 1 1 5E2E574C
P 3550 1900
F 0 "C6" V 3500 1800 50  0000 C CNN
F 1 "30p" V 3600 1800 50  0000 C CNN
F 2 "Capacitor_SMD:C_0402_1005Metric" H 3588 1750 50  0001 C CNN
F 3 "~" H 3550 1900 50  0001 C CNN
	1    3550 1900
	0    1    1    0   
$EndComp
Wire Wire Line
	3700 1900 3750 1900
Wire Wire Line
	3750 1900 3750 1850
Wire Wire Line
	3400 1900 3350 1900
Wire Wire Line
	3350 1900 3350 1700
Wire Wire Line
	3350 1500 3400 1500
Wire Wire Line
	3550 1700 3350 1700
Connection ~ 3350 1700
Wire Wire Line
	3350 1700 3350 1500
Wire Wire Line
	3350 1700 3250 1700
Wire Wire Line
	3750 1550 3750 1500
Wire Wire Line
	3750 1500 3700 1500
Wire Wire Line
	3950 1700 4050 1700
Wire Wire Line
	3750 1900 4600 1900
Wire Wire Line
	4600 1750 4750 1750
Connection ~ 3750 1900
Wire Wire Line
	4750 1650 4600 1650
Wire Wire Line
	4600 1650 4600 1500
Connection ~ 3750 1500
$Comp
L power:GND #PWR011
U 1 1 5E2E8A8B
P 4050 1700
F 0 "#PWR011" H 4050 1450 50  0001 C CNN
F 1 "GND" V 4055 1572 50  0000 R CNN
F 2 "" H 4050 1700 50  0001 C CNN
F 3 "" H 4050 1700 50  0001 C CNN
	1    4050 1700
	0    -1   -1   0   
$EndComp
$Comp
L power:GND #PWR08
U 1 1 5E2E91AD
P 3250 1700
F 0 "#PWR08" H 3250 1450 50  0001 C CNN
F 1 "GND" V 3255 1572 50  0000 R CNN
F 2 "" H 3250 1700 50  0001 C CNN
F 3 "" H 3250 1700 50  0001 C CNN
	1    3250 1700
	0    1    1    0   
$EndComp
$Comp
L power:+3.3V #PWR014
U 1 1 5E2EA0E3
P 5450 950
F 0 "#PWR014" H 5450 800 50  0001 C CNN
F 1 "+3.3V" H 5465 1123 50  0000 C CNN
F 2 "" H 5450 950 50  0001 C CNN
F 3 "" H 5450 950 50  0001 C CNN
	1    5450 950 
	1    0    0    -1  
$EndComp
Wire Wire Line
	5250 1050 5250 1000
Wire Wire Line
	5250 1000 5350 1000
Wire Wire Line
	5650 1000 5650 1050
Wire Wire Line
	5550 1050 5550 1000
Connection ~ 5550 1000
Wire Wire Line
	5550 1000 5650 1000
Wire Wire Line
	5450 1050 5450 1000
Connection ~ 5450 1000
Wire Wire Line
	5450 1000 5550 1000
Wire Wire Line
	5350 1050 5350 1000
Connection ~ 5350 1000
Wire Wire Line
	5350 1000 5450 1000
Wire Wire Line
	5450 1000 5450 950 
$Comp
L power:GND #PWR013
U 1 1 5E2ECFC8
P 5400 4150
F 0 "#PWR013" H 5400 3900 50  0001 C CNN
F 1 "GND" H 5405 3977 50  0000 C CNN
F 2 "" H 5400 4150 50  0001 C CNN
F 3 "" H 5400 4150 50  0001 C CNN
	1    5400 4150
	1    0    0    -1  
$EndComp
Wire Wire Line
	5250 4050 5250 4100
Wire Wire Line
	5250 4100 5350 4100
Wire Wire Line
	5550 4100 5550 4050
Wire Wire Line
	5350 4050 5350 4100
Connection ~ 5350 4100
Wire Wire Line
	5350 4100 5400 4100
Wire Wire Line
	5450 4050 5450 4100
Connection ~ 5450 4100
Wire Wire Line
	5450 4100 5550 4100
Wire Wire Line
	5400 4100 5400 4150
Connection ~ 5400 4100
Wire Wire Line
	5400 4100 5450 4100
Wire Wire Line
	4750 3150 4700 3150
Wire Wire Line
	4750 3250 4700 3250
Text Label 4700 3150 2    50   ~ 0
CAN_RX
Text Label 4700 3250 2    50   ~ 0
CAN_TX
Wire Wire Line
	6050 3450 6100 3450
Wire Wire Line
	6050 3550 6100 3550
Wire Wire Line
	6050 3650 6100 3650
Wire Wire Line
	6050 3750 6100 3750
Text Label 6100 3450 0    50   ~ 0
USB_D-
Text Label 6100 3550 0    50   ~ 0
USB_D+
Text Label 6100 3650 0    50   ~ 0
SWDIO
Text Label 6100 3750 0    50   ~ 0
SWCLK
$Comp
L power:+3.3V #PWR017
U 1 1 5E2F5851
P 7700 950
F 0 "#PWR017" H 7700 800 50  0001 C CNN
F 1 "+3.3V" H 7715 1123 50  0000 C CNN
F 2 "" H 7700 950 50  0001 C CNN
F 3 "" H 7700 950 50  0001 C CNN
	1    7700 950 
	1    0    0    -1  
$EndComp
$Comp
L Device:C C9
U 1 1 5E2F5C07
P 7300 1200
F 0 "C9" H 7415 1246 50  0000 L CNN
F 1 "100n" H 7415 1155 50  0000 L CNN
F 2 "Capacitor_SMD:C_0603_1608Metric" H 7338 1050 50  0001 C CNN
F 3 "~" H 7300 1200 50  0001 C CNN
	1    7300 1200
	1    0    0    -1  
$EndComp
$Comp
L Device:C C10
U 1 1 5E2F6CFB
P 7700 1200
F 0 "C10" H 7815 1246 50  0000 L CNN
F 1 "100n" H 7815 1155 50  0000 L CNN
F 2 "Capacitor_SMD:C_0603_1608Metric" H 7738 1050 50  0001 C CNN
F 3 "~" H 7700 1200 50  0001 C CNN
	1    7700 1200
	1    0    0    -1  
$EndComp
$Comp
L Device:C C11
U 1 1 5E2F7163
P 8100 1200
F 0 "C11" H 8215 1246 50  0000 L CNN
F 1 "100n" H 8215 1155 50  0000 L CNN
F 2 "Capacitor_SMD:C_0603_1608Metric" H 8138 1050 50  0001 C CNN
F 3 "~" H 8100 1200 50  0001 C CNN
	1    8100 1200
	1    0    0    -1  
$EndComp
$Comp
L Device:C C12
U 1 1 5E2F73F6
P 8500 1200
F 0 "C12" H 8615 1246 50  0000 L CNN
F 1 "10u" H 8615 1155 50  0000 L CNN
F 2 "Capacitor_SMD:C_0603_1608Metric" H 8538 1050 50  0001 C CNN
F 3 "~" H 8500 1200 50  0001 C CNN
	1    8500 1200
	1    0    0    -1  
$EndComp
Wire Wire Line
	7300 1050 7300 1000
Wire Wire Line
	7300 1000 7700 1000
Wire Wire Line
	7700 1050 7700 1000
Connection ~ 7700 1000
Wire Wire Line
	8100 1000 8100 1050
Wire Wire Line
	8100 1000 8500 1000
Wire Wire Line
	8500 1000 8500 1050
Connection ~ 8100 1000
Wire Wire Line
	7300 1350 7300 1400
Wire Wire Line
	7300 1400 7700 1400
Wire Wire Line
	7700 1400 7700 1350
Wire Wire Line
	8100 1400 8100 1350
Connection ~ 7700 1400
Wire Wire Line
	8100 1400 8500 1400
Wire Wire Line
	8500 1400 8500 1350
Connection ~ 8100 1400
$Comp
L power:GND #PWR018
U 1 1 5E2FE82E
P 7700 1450
F 0 "#PWR018" H 7700 1200 50  0001 C CNN
F 1 "GND" H 7705 1277 50  0000 C CNN
F 2 "" H 7700 1450 50  0001 C CNN
F 3 "" H 7700 1450 50  0001 C CNN
	1    7700 1450
	1    0    0    -1  
$EndComp
$Comp
L Device:C C8
U 1 1 5E2FFC2D
P 6900 1200
F 0 "C8" H 7015 1246 50  0000 L CNN
F 1 "100n" H 7015 1155 50  0000 L CNN
F 2 "Capacitor_SMD:C_0603_1608Metric" H 6938 1050 50  0001 C CNN
F 3 "~" H 6900 1200 50  0001 C CNN
	1    6900 1200
	1    0    0    -1  
$EndComp
Wire Wire Line
	7300 1400 6900 1400
Wire Wire Line
	6900 1400 6900 1350
Connection ~ 7300 1400
Wire Wire Line
	6900 1050 6900 1000
Wire Wire Line
	6900 1000 7300 1000
Connection ~ 7300 1000
Wire Wire Line
	7700 1450 7700 1400
Wire Wire Line
	7700 1000 7700 950 
Wire Wire Line
	7700 1000 8100 1000
Wire Wire Line
	7700 1400 8100 1400
Wire Wire Line
	6050 2350 6150 2350
Wire Wire Line
	6050 2450 6150 2450
Text Label 6150 2450 0    50   ~ 0
LED_TX
Text Label 6150 2350 0    50   ~ 0
LED_RX
Wire Wire Line
	4600 1900 4600 1750
$Comp
L extra_symbols:TC1185 U2
U 1 1 5E2F206D
P 1500 1150
F 0 "U2" H 1500 1515 50  0000 C CNN
F 1 "TC1185" H 1500 1424 50  0000 C CNN
F 2 "Package_TO_SOT_SMD:SOT-23-5" H 1450 950 50  0001 C CNN
F 3 "" H 1450 950 50  0001 C CNN
	1    1500 1150
	1    0    0    -1  
$EndComp
$Comp
L power:+5V #PWR03
U 1 1 5E2F2EEB
P 1100 1000
F 0 "#PWR03" H 1100 850 50  0001 C CNN
F 1 "+5V" H 1115 1173 50  0000 C CNN
F 2 "" H 1100 1000 50  0001 C CNN
F 3 "" H 1100 1000 50  0001 C CNN
	1    1100 1000
	1    0    0    -1  
$EndComp
Wire Wire Line
	1150 1250 1100 1250
Wire Wire Line
	1100 1250 1100 1050
Wire Wire Line
	1150 1050 1100 1050
Connection ~ 1100 1050
Wire Wire Line
	1100 1050 1100 1000
$Comp
L Device:C C1
U 1 1 5E2F6AE2
P 800 1250
F 0 "C1" H 915 1296 50  0000 L CNN
F 1 "1u" H 915 1205 50  0000 L CNN
F 2 "Capacitor_SMD:C_0603_1608Metric" H 838 1100 50  0001 C CNN
F 3 "~" H 800 1250 50  0001 C CNN
	1    800  1250
	1    0    0    -1  
$EndComp
Wire Wire Line
	1150 1150 1050 1150
Wire Wire Line
	1050 1150 1050 1450
Wire Wire Line
	1050 1450 800  1450
Wire Wire Line
	800  1450 800  1400
Wire Wire Line
	800  1100 800  1050
$Comp
L power:+3.3V #PWR06
U 1 1 5E2FB887
P 2350 1000
F 0 "#PWR06" H 2350 850 50  0001 C CNN
F 1 "+3.3V" H 2365 1173 50  0000 C CNN
F 2 "" H 2350 1000 50  0001 C CNN
F 3 "" H 2350 1000 50  0001 C CNN
	1    2350 1000
	1    0    0    -1  
$EndComp
$Comp
L Device:C C2
U 1 1 5E2FBFEA
P 1900 1350
F 0 "C2" H 2015 1396 50  0000 L CNN
F 1 "470p" H 2015 1305 50  0000 L CNN
F 2 "Capacitor_SMD:C_0603_1608Metric" H 1938 1200 50  0001 C CNN
F 3 "~" H 1900 1350 50  0001 C CNN
	1    1900 1350
	1    0    0    -1  
$EndComp
$Comp
L Device:C C3
U 1 1 5E2FC4D8
P 2350 1350
F 0 "C3" H 2465 1396 50  0000 L CNN
F 1 "1u" H 2465 1305 50  0000 L CNN
F 2 "Capacitor_SMD:C_0603_1608Metric" H 2388 1200 50  0001 C CNN
F 3 "~" H 2350 1350 50  0001 C CNN
	1    2350 1350
	1    0    0    -1  
$EndComp
Wire Wire Line
	1850 1050 2350 1050
Wire Wire Line
	2350 1050 2350 1000
Wire Wire Line
	2350 1050 2350 1200
Connection ~ 2350 1050
Wire Wire Line
	1900 1200 1900 1150
Wire Wire Line
	1900 1150 1850 1150
$Comp
L power:GND #PWR02
U 1 1 5E30432A
P 1050 1550
F 0 "#PWR02" H 1050 1300 50  0001 C CNN
F 1 "GND" H 1055 1377 50  0000 C CNN
F 2 "" H 1050 1550 50  0001 C CNN
F 3 "" H 1050 1550 50  0001 C CNN
	1    1050 1550
	1    0    0    -1  
$EndComp
Wire Wire Line
	1050 1550 1050 1450
Connection ~ 1050 1450
$Comp
L power:GND #PWR04
U 1 1 5E306E5D
P 1900 1550
F 0 "#PWR04" H 1900 1300 50  0001 C CNN
F 1 "GND" H 1905 1377 50  0000 C CNN
F 2 "" H 1900 1550 50  0001 C CNN
F 3 "" H 1900 1550 50  0001 C CNN
	1    1900 1550
	1    0    0    -1  
$EndComp
$Comp
L power:GND #PWR07
U 1 1 5E307171
P 2350 1550
F 0 "#PWR07" H 2350 1300 50  0001 C CNN
F 1 "GND" H 2355 1377 50  0000 C CNN
F 2 "" H 2350 1550 50  0001 C CNN
F 3 "" H 2350 1550 50  0001 C CNN
	1    2350 1550
	1    0    0    -1  
$EndComp
Wire Wire Line
	1900 1550 1900 1500
Wire Wire Line
	2350 1550 2350 1500
Wire Wire Line
	4600 1500 3750 1500
Text Label 7300 3150 3    50   ~ 0
LED_TX
$Comp
L Device:LED D1
U 1 1 5E31845B
P 6900 2600
F 0 "D1" V 7000 2550 50  0000 R CNN
F 1 "RX" H 7050 2700 50  0000 R CNN
F 2 "LED_SMD:LED_0603_1608Metric" H 6900 2600 50  0001 C CNN
F 3 "~" H 6900 2600 50  0001 C CNN
F 4 "150060BS75000" V 6900 2600 50  0001 C CNN "Name"
	1    6900 2600
	0    -1   -1   0   
$EndComp
$Comp
L Device:LED D2
U 1 1 5E31973D
P 7300 2600
F 0 "D2" V 7400 2550 50  0000 R CNN
F 1 "TX" H 7450 2700 50  0000 R CNN
F 2 "LED_SMD:LED_0603_1608Metric" H 7300 2600 50  0001 C CNN
F 3 "~" H 7300 2600 50  0001 C CNN
F 4 "150060BS75000" V 7300 2600 50  0001 C CNN "Name"
	1    7300 2600
	0    -1   -1   0   
$EndComp
$Comp
L power:+3.3V #PWR05
U 1 1 5E31A206
P 7100 2350
F 0 "#PWR05" H 7100 2200 50  0001 C CNN
F 1 "+3.3V" H 7115 2523 50  0000 C CNN
F 2 "" H 7100 2350 50  0001 C CNN
F 3 "" H 7100 2350 50  0001 C CNN
	1    7100 2350
	1    0    0    -1  
$EndComp
Wire Wire Line
	6900 2450 6900 2400
Wire Wire Line
	6900 2400 7100 2400
Wire Wire Line
	7100 2400 7100 2350
Wire Wire Line
	7100 2400 7300 2400
Wire Wire Line
	7300 2400 7300 2450
Connection ~ 7100 2400
Text Label 6900 3150 3    50   ~ 0
LED_RX
$Comp
L Device:R R2
U 1 1 5E320839
P 7300 2950
F 0 "R2" H 7370 2996 50  0000 L CNN
F 1 "~" H 7370 2905 50  0000 L CNN
F 2 "Resistor_SMD:R_0603_1608Metric" V 7230 2950 50  0001 C CNN
F 3 "~" H 7300 2950 50  0001 C CNN
	1    7300 2950
	1    0    0    -1  
$EndComp
Wire Wire Line
	7300 3150 7300 3100
Wire Wire Line
	7300 2800 7300 2750
Wire Wire Line
	6900 3150 6900 3100
Wire Wire Line
	6900 2800 6900 2750
Text Label 4300 2750 0    50   ~ 0
BOOT0
$Comp
L Connector:Conn_01x06_Male J_SWD1
U 1 1 5E3448F0
P 3600 5050
F 0 "J_SWD1" H 3572 5024 50  0000 R CNN
F 1 "Molex PicoBlade 6Pin" H 3572 4933 50  0000 R CNN
F 2 "Connector_PinHeader_1.27mm:PinHeader_1x06_P1.27mm_Vertical" H 3600 5050 50  0001 C CNN
F 3 "~" H 3600 5050 50  0001 C CNN
	1    3600 5050
	-1   0    0    -1  
$EndComp
Text Label 3350 4850 2    50   ~ 0
~RST
Wire Wire Line
	3350 4850 3400 4850
Wire Wire Line
	3100 4950 3100 4850
Wire Wire Line
	3100 4950 3400 4950
$Comp
L power:+3.3V #PWR015
U 1 1 5E350DBE
P 3100 4850
F 0 "#PWR015" H 3100 4700 50  0001 C CNN
F 1 "+3.3V" H 3115 5023 50  0000 C CNN
F 2 "" H 3100 4850 50  0001 C CNN
F 3 "" H 3100 4850 50  0001 C CNN
	1    3100 4850
	1    0    0    -1  
$EndComp
Wire Wire Line
	3400 5050 3350 5050
Wire Wire Line
	3400 5150 3350 5150
Wire Wire Line
	3400 5350 3350 5350
Wire Wire Line
	3350 5350 3350 5400
$Comp
L power:GND #PWR016
U 1 1 5E35E0D7
P 3350 5400
F 0 "#PWR016" H 3350 5150 50  0001 C CNN
F 1 "GND" H 3355 5227 50  0000 C CNN
F 2 "" H 3350 5400 50  0001 C CNN
F 3 "" H 3350 5400 50  0001 C CNN
	1    3350 5400
	1    0    0    -1  
$EndComp
Text Label 3350 5050 2    50   ~ 0
SWDIO
Text Label 3350 5150 2    50   ~ 0
SWCLK
NoConn ~ 3400 5250
NoConn ~ 6050 3850
NoConn ~ 6050 3350
NoConn ~ 6050 3250
NoConn ~ 6050 3150
NoConn ~ 6050 3050
NoConn ~ 6050 2950
NoConn ~ 6050 2850
NoConn ~ 6050 2750
NoConn ~ 6050 2650
NoConn ~ 6050 2550
NoConn ~ 4750 3850
NoConn ~ 4750 3750
NoConn ~ 4750 3650
NoConn ~ 4750 3550
NoConn ~ 4750 3450
NoConn ~ 4750 3350
NoConn ~ 4750 3050
NoConn ~ 4750 2950
NoConn ~ 4750 2850
NoConn ~ 4750 2750
NoConn ~ 4750 2650
NoConn ~ 4750 2550
NoConn ~ 4750 2450
NoConn ~ 4750 2350
NoConn ~ 4750 2150
NoConn ~ 4750 2050
NoConn ~ 4750 1950
Wire Wire Line
	4550 1250 4750 1250
Text Label 3500 2500 1    50   ~ 0
~RST
$Comp
L power:GND #PWR010
U 1 1 5E3DC466
P 4000 3200
F 0 "#PWR010" H 4000 2950 50  0001 C CNN
F 1 "GND" H 4005 3027 50  0000 C CNN
F 2 "" H 4000 3200 50  0001 C CNN
F 3 "" H 4000 3200 50  0001 C CNN
	1    4000 3200
	1    0    0    -1  
$EndComp
$Comp
L Device:C C7
U 1 1 5E3DC966
P 4200 2950
F 0 "C7" H 4315 2996 50  0000 L CNN
F 1 "100n" H 4315 2905 50  0000 L CNN
F 2 "Capacitor_SMD:C_0603_1608Metric" H 4238 2800 50  0001 C CNN
F 3 "~" H 4200 2950 50  0001 C CNN
	1    4200 2950
	1    0    0    -1  
$EndComp
$Comp
L Device:R R3
U 1 1 5E3DCF87
P 3900 2950
F 0 "R3" H 3970 2996 50  0000 L CNN
F 1 "10k" H 3970 2905 50  0000 L CNN
F 2 "Resistor_SMD:R_0603_1608Metric" V 3830 2950 50  0001 C CNN
F 3 "~" H 3900 2950 50  0001 C CNN
	1    3900 2950
	1    0    0    -1  
$EndComp
Wire Wire Line
	3900 3100 3900 3150
Wire Wire Line
	3900 3150 4000 3150
Wire Wire Line
	4000 3150 4000 3200
Wire Wire Line
	4000 3150 4200 3150
Connection ~ 4000 3150
Wire Wire Line
	4200 3100 4200 3150
Wire Wire Line
	4300 2750 4200 2750
Wire Wire Line
	4200 2750 4200 2800
Wire Wire Line
	4200 2750 3900 2750
Wire Wire Line
	3900 2750 3900 2800
Connection ~ 4200 2750
Wire Wire Line
	4200 2750 4200 2650
Wire Wire Line
	4550 1450 4750 1450
Wire Notes Line
	650  2200 2600 2200
Wire Notes Line
	2600 700  650  700 
Wire Notes Line
	2950 4600 2950 5650
Wire Notes Line
	8800 700  6700 700 
Text Label 1650 2700 1    50   ~ 0
USB_D-
Text Label 1500 2700 1    50   ~ 0
USB_D+
NoConn ~ 1200 3150
Wire Wire Line
	900  3400 900  3350
Wire Notes Line
	2700 3800 2700 2400
Wire Notes Line
	650  2400 650  3800
Text Notes 650  650  0    50   ~ 0
3V3 LDO for MCU\n
Text Notes 650  2350 0    50   ~ 0
USB connectors
Wire Notes Line
	2950 4400 6450 4400
Wire Notes Line
	6450 700  2950 700 
Wire Notes Line
	2950 700  2950 4400
Text Notes 2950 650  0    50   ~ 0
MCU
Text Notes 6700 650  0    50   ~ 0
blocking capaciators for MCU
Text Notes 6700 2050 0    50   ~ 0
Indicator LEDs
Text Notes 2950 4550 0    50   ~ 0
SWD connector
Wire Wire Line
	4200 2250 4200 2200
$Comp
L power:+3.3V #PWR012
U 1 1 5E3F7BDD
P 4200 2200
F 0 "#PWR012" H 4200 2050 50  0001 C CNN
F 1 "+3.3V" H 4215 2373 50  0000 C CNN
F 2 "" H 4200 2200 50  0001 C CNN
F 3 "" H 4200 2200 50  0001 C CNN
	1    4200 2200
	1    0    0    -1  
$EndComp
$Comp
L Switch:SW_Push SW2
U 1 1 5E3B85ED
P 4200 2450
F 0 "SW2" V 4246 2402 50  0000 R CNN
F 1 "PTS636 SM25F" H 4500 2650 50  0000 R CNN
F 2 "Button_Switch_SMD:SW_Push_1P1T_NO_Vertical_Wuerth_434133025816" H 4200 2650 50  0001 C CNN
F 3 "https://dznh3ojzb2azq.cloudfront.net/products/Tactile/PTS636/documents/datasheet.pdf" H 4200 2650 50  0001 C CNN
F 4 "Boot0" V 4150 2300 50  0000 C CNN "Name"
	1    4200 2450
	0    -1   -1   0   
$EndComp
$Comp
L Device:R R5
U 1 1 5E384D28
P 1600 3350
F 0 "R5" V 1393 3350 50  0000 C CNN
F 1 "0R" V 1484 3350 50  0000 C CNN
F 2 "Capacitor_SMD:C_0402_1005Metric" V 1530 3350 50  0001 C CNN
F 3 "~" H 1600 3350 50  0001 C CNN
	1    1600 3350
	-1   0    0    1   
$EndComp
$Comp
L power:GND #PWR0102
U 1 1 5E3A3B6F
P 3650 4000
F 0 "#PWR0102" H 3650 3750 50  0001 C CNN
F 1 "GND" H 3655 3827 50  0000 C CNN
F 2 "" H 3650 4000 50  0001 C CNN
F 3 "" H 3650 4000 50  0001 C CNN
	1    3650 4000
	1    0    0    -1  
$EndComp
$Comp
L power:PWR_FLAG #FLG0102
U 1 1 5E3A40B6
P 3650 3950
F 0 "#FLG0102" H 3650 4025 50  0001 C CNN
F 1 "PWR_FLAG" H 3650 4123 50  0000 C CNN
F 2 "" H 3650 3950 50  0001 C CNN
F 3 "~" H 3650 3950 50  0001 C CNN
	1    3650 3950
	1    0    0    -1  
$EndComp
Wire Wire Line
	3650 4000 3650 3950
Wire Wire Line
	1200 3050 1650 3050
Wire Wire Line
	1200 2950 1500 2950
Wire Wire Line
	1500 2950 1500 2700
Wire Wire Line
	1600 3150 1350 3150
Wire Wire Line
	1600 3150 1600 3200
Wire Wire Line
	1350 3150 1350 3400
Wire Wire Line
	900  3400 1350 3400
$Comp
L power:GND #PWR0101
U 1 1 5E67465D
P 1600 3550
F 0 "#PWR0101" H 1600 3300 50  0001 C CNN
F 1 "GND" H 1605 3377 50  0000 C CNN
F 2 "" H 1600 3550 50  0001 C CNN
F 3 "" H 1600 3550 50  0001 C CNN
	1    1600 3550
	1    0    0    -1  
$EndComp
Wire Wire Line
	1600 3550 1600 3500
$Comp
L Device:R R1
U 1 1 5E3202AE
P 6900 2950
F 0 "R1" H 6970 2996 50  0000 L CNN
F 1 "~" H 6970 2905 50  0000 L CNN
F 2 "Resistor_SMD:R_0603_1608Metric" V 6830 2950 50  0001 C CNN
F 3 "~" H 6900 2950 50  0001 C CNN
	1    6900 2950
	1    0    0    -1  
$EndComp
Wire Wire Line
	1650 2700 1650 3050
$Comp
L Connector:USB_B_Micro J_USB1
U 1 1 5E33D079
P 900 2950
F 0 "J_USB1" H 957 3417 50  0000 C CNN
F 1 "USB_B_Micro" H 957 3326 50  0000 C CNN
F 2 "Connector_USB:USB_Micro-B_Molex-105017-0001" H 1050 2900 50  0001 C CNN
F 3 "~" H 1050 2900 50  0001 C CNN
	1    900  2950
	1    0    0    -1  
$EndComp
Wire Wire Line
	1200 2750 1250 2750
Wire Wire Line
	1250 2750 1250 2850
$Comp
L power:+5V #PWR0107
U 1 1 5E7C8D4A
P 2300 3150
F 0 "#PWR0107" H 2300 3000 50  0001 C CNN
F 1 "+5V" H 2315 3323 50  0000 C CNN
F 2 "" H 2300 3150 50  0001 C CNN
F 3 "" H 2300 3150 50  0001 C CNN
	1    2300 3150
	0    1    1    0   
$EndComp
Wire Notes Line
	6450 700  6450 4400
$Comp
L Device:C C?
U 1 1 5E75D7C0
P 850 6800
AR Path="/5E30E1F6/5E75D7C0" Ref="C?"  Part="1" 
AR Path="/5E75D7C0" Ref="C13"  Part="1" 
F 0 "C13" H 965 6846 50  0000 L CNN
F 1 "100n" H 965 6755 50  0000 L CNN
F 2 "Capacitor_SMD:C_0603_1608Metric" H 888 6650 50  0001 C CNN
F 3 "~" H 850 6800 50  0001 C CNN
	1    850  6800
	1    0    0    -1  
$EndComp
$Comp
L power:+3.3V #PWR?
U 1 1 5E75D7D0
P 850 6150
AR Path="/5E30E1F6/5E75D7D0" Ref="#PWR?"  Part="1" 
AR Path="/5E75D7D0" Ref="#PWR0103"  Part="1" 
F 0 "#PWR0103" H 850 6000 50  0001 C CNN
F 1 "+3.3V" H 865 6323 50  0000 C CNN
F 2 "" H 850 6150 50  0001 C CNN
F 3 "" H 850 6150 50  0001 C CNN
	1    850  6150
	1    0    0    -1  
$EndComp
$Comp
L power:GND #PWR?
U 1 1 5E75D7EC
P 850 7350
AR Path="/5E30E1F6/5E75D7EC" Ref="#PWR?"  Part="1" 
AR Path="/5E75D7EC" Ref="#PWR0105"  Part="1" 
F 0 "#PWR0105" H 850 7100 50  0001 C CNN
F 1 "GND" H 855 7177 50  0000 C CNN
F 2 "" H 850 7350 50  0001 C CNN
F 3 "" H 850 7350 50  0001 C CNN
	1    850  7350
	1    0    0    -1  
$EndComp
$Comp
L Connector:RJ45 J?
U 1 1 5E75D7F6
P 1750 4550
AR Path="/5E30E1F6/5E75D7F6" Ref="J?"  Part="1" 
AR Path="/5E75D7F6" Ref="J1"  Part="1" 
F 0 "J1" H 1420 4554 50  0000 R CNN
F 1 "RJ45" H 1420 4645 50  0000 R CNN
F 2 "Connector_RJ:RJ45_Amphenol_54602-x08_Horizontal" V 1750 4575 50  0001 C CNN
F 3 "~" V 1750 4575 50  0001 C CNN
	1    1750 4550
	-1   0    0    1   
$EndComp
NoConn ~ 1350 4550
NoConn ~ 1350 4650
NoConn ~ 1350 4750
Text Label 1800 6850 2    50   ~ 0
CAN_TX
Text Label 1800 6750 2    50   ~ 0
CAN_RX
Text Notes 6800 1800 0    50   ~ 0
Place as near to mcu as possible
Text Notes 750  1950 0    50   ~ 0
Place caps as near as possible to LDO
Wire Notes Line
	650  700  650  2200
Wire Notes Line
	2600 700  2600 2200
Wire Notes Line
	6700 1850 8800 1850
Wire Notes Line
	8800 700  8800 1850
Wire Notes Line
	6700 700  6700 1850
Text Notes 4500 4800 0    50   ~ 0
Used for flashing the mcu
Wire Notes Line
	5600 4600 5600 5650
Wire Notes Line
	2950 5650 5600 5650
Wire Notes Line
	2950 4600 5600 4600
Wire Wire Line
	800  1050 1100 1050
$Comp
L Device:CP C14
U 1 1 5E79ABEF
P 2150 3400
F 0 "C14" H 2268 3446 50  0000 L CNN
F 1 "10u" H 2268 3355 50  0000 L CNN
F 2 "Capacitor_SMD:C_0603_1608Metric" H 2188 3250 50  0001 C CNN
F 3 "~" H 2150 3400 50  0001 C CNN
	1    2150 3400
	1    0    0    -1  
$EndComp
$Comp
L power:GND #PWR0104
U 1 1 5E7AAD4D
P 2150 3550
F 0 "#PWR0104" H 2150 3300 50  0001 C CNN
F 1 "GND" H 2155 3377 50  0000 C CNN
F 2 "" H 2150 3550 50  0001 C CNN
F 3 "" H 2150 3550 50  0001 C CNN
	1    2150 3550
	1    0    0    -1  
$EndComp
$Comp
L Device:Ferrite_Bead FB1
U 1 1 5E7B46F3
P 800 3550
F 0 "FB1" H 937 3596 50  0000 L CNN
F 1 "Ferrite_Bead" H 937 3505 50  0000 L CNN
F 2 "Capacitor_SMD:C_0603_1608Metric" V 730 3550 50  0001 C CNN
F 3 "~" H 800 3550 50  0001 C CNN
	1    800  3550
	1    0    0    -1  
$EndComp
Wire Wire Line
	800  3350 800  3400
Wire Wire Line
	800  3700 800  3750
Wire Wire Line
	1450 3750 1450 3400
Wire Wire Line
	1450 3400 1350 3400
Wire Wire Line
	800  3750 1450 3750
Connection ~ 1350 3400
$Comp
L Device:Ferrite_Bead FB2
U 1 1 5E7C8224
P 1950 2850
F 0 "FB2" V 1850 2950 50  0000 L CNN
F 1 "Ferrite_Bead" V 1750 2700 50  0000 L CNN
F 2 "Capacitor_SMD:C_0603_1608Metric" V 1880 2850 50  0001 C CNN
F 3 "~" H 1950 2850 50  0001 C CNN
	1    1950 2850
	0    1    1    0   
$EndComp
Wire Notes Line
	650  3800 2700 3800
Wire Notes Line
	650  2400 2700 2400
$Comp
L Device:Jumper JP1
U 1 1 5E805B01
P 6150 7150
F 0 "JP1" H 6150 7414 50  0000 C CNN
F 1 "Jumper" H 6150 7323 50  0000 C CNN
F 2 "Connector_PinHeader_1.27mm:PinHeader_1x02_P1.27mm_Vertical" H 6150 7150 50  0001 C CNN
F 3 "~" H 6150 7150 50  0001 C CNN
	1    6150 7150
	1    0    0    -1  
$EndComp
Wire Wire Line
	1350 4850 1150 4850
Wire Wire Line
	1150 4850 1150 5050
Text Label 1350 4250 2    50   ~ 0
CAN+
Text Label 1350 4350 2    50   ~ 0
CAN-
Wire Wire Line
	1350 4450 1150 4450
Wire Wire Line
	1150 4450 1150 4850
Connection ~ 1150 4850
Wire Wire Line
	1150 5050 1050 5050
Text Label 1050 5050 2    50   ~ 0
CAN_GND
Wire Wire Line
	6450 7150 6550 7150
Wire Wire Line
	6550 7150 6550 7200
$Comp
L Device:R R?
U 1 1 5E75D7D6
P 6550 7350
AR Path="/5E30E1F6/5E75D7D6" Ref="R?"  Part="1" 
AR Path="/5E75D7D6" Ref="R4"  Part="1" 
F 0 "R4" H 6620 7396 50  0000 L CNN
F 1 "~" H 6620 7305 50  0000 L CNN
F 2 "Resistor_SMD:R_0603_1608Metric" V 6480 7350 50  0001 C CNN
F 3 "~" H 6550 7350 50  0001 C CNN
	1    6550 7350
	-1   0    0    1   
$EndComp
Wire Wire Line
	6550 7500 6550 7550
Wire Wire Line
	6550 7550 5850 7550
Text Label 5850 7150 2    50   ~ 0
CAN+
Text Label 5850 7550 2    50   ~ 0
CAN-
Text Notes 650  4050 0    50   ~ 0
CAN connector
Text Notes 5600 6750 0    50   ~ 0
CAN termination
Text Notes 3050 3650 0    50   ~ 0
Place reset and boot cap as close \nas possible to mcu
Wire Wire Line
	1250 2850 1800 2850
Wire Wire Line
	2100 2850 2150 2850
Wire Wire Line
	2150 2850 2150 2900
Wire Wire Line
	2300 3150 2150 3150
Connection ~ 2150 3150
Wire Wire Line
	2150 3150 2150 3250
$Comp
L extra_symbols:ADM3052 U4
U 1 1 5E89E2B0
P 2450 6750
F 0 "U4" H 2450 7150 50  0000 C CNN
F 1 "ADM3052" H 2450 7200 50  0000 C CNN
F 2 "Package_SO:SOIC-16W_7.5x10.3mm_P1.27mm" H 2500 6750 50  0001 C CNN
F 3 "https://www.analog.com/media/en/technical-documentation/data-sheets/ADM3052.pdf" H 2500 6750 50  0001 C CNN
	1    2450 6750
	1    0    0    -1  
$EndComp
Text Label 1800 6650 2    50   ~ 0
LED_BUS_PWR
NoConn ~ 3100 6650
Text Notes 1100 7550 0    50   ~ 0
Layout reccomendations:\n\n300R resistor min. 750 mW\n1u cap on pin CINT must be rated at 10 V
Text Notes 2550 7350 0    50   ~ 0
BUS_PWR_Indicator is LOW when power is connected on bus side\nIt is HIGH if no bus power is connected
Wire Wire Line
	850  6950 850  7350
Wire Wire Line
	1800 6950 850  6950
Connection ~ 850  6950
Wire Wire Line
	850  6150 850  6550
Wire Wire Line
	1800 6550 850  6550
Connection ~ 850  6550
Wire Wire Line
	850  6550 850  6650
Wire Wire Line
	4100 7050 4650 7050
Connection ~ 4100 7050
Wire Wire Line
	4100 6900 4100 7050
Wire Wire Line
	3800 7050 4100 7050
Wire Wire Line
	3650 6700 3650 6950
Wire Wire Line
	3800 6700 3650 6700
Wire Wire Line
	3800 7000 3800 7050
$Comp
L Device:C C?
U 1 1 5E95C04E
P 3800 6850
AR Path="/5E30E1F6/5E95C04E" Ref="C?"  Part="1" 
AR Path="/5E95C04E" Ref="C15"  Part="1" 
F 0 "C15" H 3900 6800 50  0000 L CNN
F 1 "1u" H 3900 6700 50  0000 L CNN
F 2 "Capacitor_SMD:C_0603_1608Metric" H 3838 6700 50  0001 C CNN
F 3 "~" H 3800 6850 50  0001 C CNN
	1    3800 6850
	1    0    0    -1  
$EndComp
Wire Wire Line
	4100 6550 4100 6600
Wire Wire Line
	4200 6550 4100 6550
$Comp
L Device:C C?
U 1 1 5E940347
P 4100 6750
AR Path="/5E30E1F6/5E940347" Ref="C?"  Part="1" 
AR Path="/5E940347" Ref="C16"  Part="1" 
F 0 "C16" H 4150 6650 50  0000 L CNN
F 1 "10u" H 4150 6550 50  0000 L CNN
F 2 "Capacitor_SMD:C_0603_1608Metric" H 4138 6600 50  0001 C CNN
F 3 "~" H 4100 6750 50  0001 C CNN
	1    4100 6750
	1    0    0    -1  
$EndComp
Wire Wire Line
	4500 6550 4500 6450
Wire Wire Line
	4650 6450 4500 6450
$Comp
L Device:R R6
U 1 1 5E913C9D
P 4350 6550
F 0 "R6" V 4450 6450 50  0000 L CNN
F 1 "300R" V 4550 6450 50  0000 L CNN
F 2 "Resistor_SMD:R_0603_1608Metric" V 4280 6550 50  0001 C CNN
F 3 "~" H 4350 6550 50  0001 C CNN
	1    4350 6550
	0    1    1    0   
$EndComp
Connection ~ 4650 7050
Wire Wire Line
	4650 6850 4650 7050
Connection ~ 4650 6450
Wire Wire Line
	4650 6550 4650 6450
$Comp
L Device:C C?
U 1 1 5E901697
P 4650 6700
AR Path="/5E30E1F6/5E901697" Ref="C?"  Part="1" 
AR Path="/5E901697" Ref="C17"  Part="1" 
F 0 "C17" H 4700 6600 50  0000 L CNN
F 1 "100n" H 4700 6500 50  0000 L CNN
F 2 "Capacitor_SMD:C_0603_1608Metric" H 4688 6550 50  0001 C CNN
F 3 "~" H 4650 6700 50  0001 C CNN
	1    4650 6700
	1    0    0    -1  
$EndComp
Wire Wire Line
	4950 6450 4650 6450
Text Label 4950 6450 0    50   ~ 0
CAN_PWR
Text Label 4950 7050 0    50   ~ 0
CAN_GND
Connection ~ 3800 7050
Wire Wire Line
	3100 7050 3800 7050
Wire Wire Line
	3100 6950 3650 6950
Connection ~ 4100 6550
Wire Wire Line
	3100 6550 4100 6550
Connection ~ 4500 6450
Wire Wire Line
	3100 6450 3800 6450
Text Label 3100 6750 0    50   ~ 0
CAN+
Text Label 3100 6850 0    50   ~ 0
CAN-
Wire Wire Line
	1350 4950 1250 4950
Wire Wire Line
	1250 4950 1250 5150
Wire Wire Line
	1250 5150 1050 5150
Text Label 1050 5150 2    50   ~ 0
CAN_PWR
Text Notes 750  5300 0    50   ~ 0
CAN_PWR is 11-25V power supply
$Comp
L power:PWR_FLAG #FLG01
U 1 1 5EA412DF
P 3800 6450
F 0 "#FLG01" H 3800 6525 50  0001 C CNN
F 1 "PWR_FLAG" H 3800 6623 50  0000 C CNN
F 2 "" H 3800 6450 50  0001 C CNN
F 3 "~" H 3800 6450 50  0001 C CNN
	1    3800 6450
	1    0    0    -1  
$EndComp
Connection ~ 3800 6450
Wire Wire Line
	3800 6450 4500 6450
Wire Notes Line
	650  5800 650  7650
Wire Notes Line
	650  7650 5450 7650
Wire Notes Line
	5450 7650 5450 5800
Wire Notes Line
	5450 5800 650  5800
Text Notes 650  5750 0    50   ~ 0
Isolated CAN driver
Wire Wire Line
	4650 7050 4800 7050
$Comp
L power:PWR_FLAG #FLG02
U 1 1 5EA6CEBA
P 4800 7050
F 0 "#FLG02" H 4800 7125 50  0001 C CNN
F 1 "PWR_FLAG" H 4500 7150 50  0000 C CNN
F 2 "" H 4800 7050 50  0001 C CNN
F 3 "~" H 4800 7050 50  0001 C CNN
	1    4800 7050
	-1   0    0    1   
$EndComp
Connection ~ 4800 7050
Wire Wire Line
	4800 7050 4950 7050
$Comp
L power:PWR_FLAG #FLG03
U 1 1 5EA6E407
P 2150 2900
F 0 "#FLG03" H 2150 2975 50  0001 C CNN
F 1 "PWR_FLAG" V 2150 3028 50  0000 L CNN
F 2 "" H 2150 2900 50  0001 C CNN
F 3 "~" H 2150 2900 50  0001 C CNN
	1    2150 2900
	0    1    1    0   
$EndComp
Connection ~ 2150 2900
Wire Wire Line
	2150 2900 2150 3150
$Comp
L Device:LED D3
U 1 1 5EA82472
P 7700 2600
F 0 "D3" V 7800 2550 50  0000 R CNN
F 1 "BUS_PWR" H 7850 2700 50  0000 R CNN
F 2 "LED_SMD:LED_0603_1608Metric" H 7700 2600 50  0001 C CNN
F 3 "~" H 7700 2600 50  0001 C CNN
F 4 "150060BS75000" V 7700 2600 50  0001 C CNN "Name"
	1    7700 2600
	0    -1   -1   0   
$EndComp
$Comp
L Device:R R7
U 1 1 5EA82950
P 7700 2950
F 0 "R7" H 7770 2996 50  0000 L CNN
F 1 "~" H 7770 2905 50  0000 L CNN
F 2 "Resistor_SMD:R_0603_1608Metric" V 7630 2950 50  0001 C CNN
F 3 "~" H 7700 2950 50  0001 C CNN
	1    7700 2950
	1    0    0    -1  
$EndComp
Wire Wire Line
	7700 2750 7700 2800
Wire Wire Line
	7700 3100 7700 3150
Text Label 7700 3150 3    50   ~ 0
LED_BUS_PWR
Wire Notes Line
	650  4100 650  5350
Wire Notes Line
	650  5350 2300 5350
Wire Notes Line
	2300 5350 2300 4100
Wire Notes Line
	2300 4100 650  4100
Wire Notes Line
	6700 2100 6700 3750
Wire Wire Line
	7700 2450 7700 2400
Wire Wire Line
	7700 2400 7300 2400
Connection ~ 7300 2400
Text Notes 8050 2450 0    50   ~ 0
LED lights up when:\nRX: Data is received\nTX: Data is sent\nBUS_PWR: Power is present
Wire Notes Line
	6700 2100 9350 2100
Wire Notes Line
	9350 2100 9350 3750
Wire Notes Line
	9350 3750 6700 3750
Wire Notes Line
	6700 6800 5600 6800
Wire Notes Line
	6700 6800 6700 7650
Wire Notes Line
	6700 7650 5600 7650
Wire Notes Line
	5600 7650 5600 6800
$EndSCHEMATC
