EESchema Schematic File Version 4
EELAYER 30 0
EELAYER END
$Descr A4 11693 8268
encoding utf-8
Sheet 2 2
Title ""
Date ""
Rev ""
Comp ""
Comment1 ""
Comment2 ""
Comment3 ""
Comment4 ""
$EndDescr
$Comp
L Interface_CAN_LIN:SN65HVD232 U3
U 1 1 5DCE2206
P 5900 3600
F 0 "U3" H 6200 3950 50  0000 C CNN
F 1 "SN65HVD232" H 6200 3850 50  0000 C CNN
F 2 "Package_SO:SOIC-8_3.9x4.9mm_P1.27mm" H 5900 3100 50  0001 C CNN
F 3 "http://www.ti.com/lit/ds/symlink/sn65hvd230.pdf" H 5800 4000 50  0001 C CNN
	1    5900 3600
	1    0    0    -1  
$EndComp
Text HLabel 5450 3500 0    50   Input ~ 0
CAN_TX
Text HLabel 5450 3600 0    50   Input ~ 0
CAN_RX
Wire Wire Line
	5450 3500 5500 3500
Wire Wire Line
	5500 3600 5450 3600
$Comp
L Device:C C13
U 1 1 5DCE2386
P 4850 3600
F 0 "C13" H 4965 3646 50  0000 L CNN
F 1 "100n" H 4965 3555 50  0000 L CNN
F 2 "Capacitor_SMD:C_0603_1608Metric" H 4888 3450 50  0001 C CNN
F 3 "~" H 4850 3600 50  0001 C CNN
	1    4850 3600
	1    0    0    -1  
$EndComp
Wire Wire Line
	4850 3450 4850 3250
Wire Wire Line
	4850 3250 5900 3250
Wire Wire Line
	5900 3250 5900 3300
Wire Wire Line
	5900 3250 5900 3200
Connection ~ 5900 3250
Wire Wire Line
	5900 4000 5900 4050
Wire Wire Line
	5900 4050 4850 4050
Wire Wire Line
	4850 4050 4850 3750
Wire Wire Line
	5900 4050 5900 4100
Connection ~ 5900 4050
$Comp
L power:+3.3V #PWR0103
U 1 1 5DCE258C
P 5900 3200
F 0 "#PWR0103" H 5900 3050 50  0001 C CNN
F 1 "+3.3V" H 5915 3373 50  0000 C CNN
F 2 "" H 5900 3200 50  0001 C CNN
F 3 "" H 5900 3200 50  0001 C CNN
	1    5900 3200
	1    0    0    -1  
$EndComp
$Comp
L Device:R R4
U 1 1 5DCE2796
P 6500 3650
F 0 "R4" H 6570 3696 50  0000 L CNN
F 1 "~" H 6570 3605 50  0000 L CNN
F 2 "Resistor_SMD:R_0603_1608Metric" V 6430 3650 50  0001 C CNN
F 3 "~" H 6500 3650 50  0001 C CNN
	1    6500 3650
	1    0    0    -1  
$EndComp
Wire Wire Line
	6300 3600 6350 3600
Wire Wire Line
	6350 3600 6350 3450
Wire Wire Line
	6350 3450 6500 3450
Wire Wire Line
	6500 3450 6500 3500
Wire Wire Line
	6300 3700 6350 3700
Wire Wire Line
	6350 3700 6350 3850
Wire Wire Line
	6350 3850 6500 3850
Wire Wire Line
	6500 3850 6500 3800
Connection ~ 6500 3850
Connection ~ 6500 3450
$Comp
L power:GND #PWR0104
U 1 1 5DCE34B1
P 7050 3950
F 0 "#PWR0104" H 7050 3700 50  0001 C CNN
F 1 "GND" H 7055 3777 50  0000 C CNN
F 2 "" H 7050 3950 50  0001 C CNN
F 3 "" H 7050 3950 50  0001 C CNN
	1    7050 3950
	1    0    0    -1  
$EndComp
$Comp
L power:GND #PWR0106
U 1 1 5E504EFF
P 5900 4100
F 0 "#PWR0106" H 5900 3850 50  0001 C CNN
F 1 "GND" H 5905 3927 50  0000 C CNN
F 2 "" H 5900 4100 50  0001 C CNN
F 3 "" H 5900 4100 50  0001 C CNN
	1    5900 4100
	1    0    0    -1  
$EndComp
Text HLabel 6500 3900 3    50   Output ~ 0
CAN-
Text HLabel 6500 3400 1    50   Output ~ 0
CAN+
Wire Wire Line
	6500 3400 6500 3450
Wire Wire Line
	6500 3900 6500 3850
$Comp
L Connector:RJ45 J1
U 1 1 5E743A98
P 8400 3600
F 0 "J1" H 8070 3604 50  0000 R CNN
F 1 "RJ45" H 8070 3695 50  0000 R CNN
F 2 "Connector_RJ:RJ45_Amphenol_54602-x08_Horizontal" V 8400 3625 50  0001 C CNN
F 3 "~" V 8400 3625 50  0001 C CNN
	1    8400 3600
	-1   0    0    1   
$EndComp
Wire Wire Line
	6500 3450 6900 3450
Wire Wire Line
	6900 3450 6900 3300
Wire Wire Line
	6900 3300 8000 3300
Wire Wire Line
	8000 3400 6950 3400
Wire Wire Line
	6950 3400 6950 3850
Wire Wire Line
	6950 3850 6500 3850
Wire Wire Line
	7050 3500 7050 3900
Wire Wire Line
	7050 3500 8000 3500
Wire Wire Line
	8000 3900 7050 3900
Connection ~ 7050 3900
Wire Wire Line
	7050 3900 7050 3950
NoConn ~ 8000 3600
NoConn ~ 8000 3700
NoConn ~ 8000 3800
NoConn ~ 8000 4000
$EndSCHEMATC
