G04 #@! TF.GenerationSoftware,KiCad,Pcbnew,(5.1.5)-3*
G04 #@! TF.CreationDate,2020-04-01T20:02:02+02:00*
G04 #@! TF.ProjectId,can-usb-bridge,63616e2d-7573-4622-9d62-72696467652e,rev?*
G04 #@! TF.SameCoordinates,Original*
G04 #@! TF.FileFunction,Soldermask,Bot*
G04 #@! TF.FilePolarity,Negative*
%FSLAX46Y46*%
G04 Gerber Fmt 4.6, Leading zero omitted, Abs format (unit mm)*
G04 Created by KiCad (PCBNEW (5.1.5)-3) date 2020-04-01 20:02:02*
%MOMM*%
%LPD*%
G04 APERTURE LIST*
%ADD10C,0.100000*%
G04 APERTURE END LIST*
D10*
G36*
X163275256Y-93161298D02*
G01*
X163381579Y-93182447D01*
X163682042Y-93306903D01*
X163952451Y-93487585D01*
X164182415Y-93717549D01*
X164363097Y-93987958D01*
X164487553Y-94288421D01*
X164551000Y-94607391D01*
X164551000Y-94932609D01*
X164487553Y-95251579D01*
X164363097Y-95552042D01*
X164182415Y-95822451D01*
X163952451Y-96052415D01*
X163682042Y-96233097D01*
X163381579Y-96357553D01*
X163275256Y-96378702D01*
X163062611Y-96421000D01*
X162737389Y-96421000D01*
X162524744Y-96378702D01*
X162418421Y-96357553D01*
X162117958Y-96233097D01*
X161847549Y-96052415D01*
X161617585Y-95822451D01*
X161436903Y-95552042D01*
X161312447Y-95251579D01*
X161249000Y-94932609D01*
X161249000Y-94607391D01*
X161312447Y-94288421D01*
X161436903Y-93987958D01*
X161617585Y-93717549D01*
X161847549Y-93487585D01*
X162117958Y-93306903D01*
X162418421Y-93182447D01*
X162524744Y-93161298D01*
X162737389Y-93119000D01*
X163062611Y-93119000D01*
X163275256Y-93161298D01*
G37*
G36*
X157302429Y-92700750D02*
G01*
X157313604Y-92704140D01*
X157323909Y-92709648D01*
X157332940Y-92717060D01*
X157340352Y-92726091D01*
X157345860Y-92736396D01*
X157349250Y-92747571D01*
X157351000Y-92765341D01*
X157351000Y-94234659D01*
X157349250Y-94252429D01*
X157345860Y-94263604D01*
X157340352Y-94273909D01*
X157332940Y-94282940D01*
X157323909Y-94290352D01*
X157313604Y-94295860D01*
X157302429Y-94299250D01*
X157284659Y-94301000D01*
X155815341Y-94301000D01*
X155797571Y-94299250D01*
X155786396Y-94295860D01*
X155776091Y-94290352D01*
X155767060Y-94282940D01*
X155759648Y-94273909D01*
X155754140Y-94263604D01*
X155750750Y-94252429D01*
X155749000Y-94234659D01*
X155749000Y-92765341D01*
X155750750Y-92747571D01*
X155754140Y-92736396D01*
X155759648Y-92726091D01*
X155767060Y-92717060D01*
X155776091Y-92709648D01*
X155786396Y-92704140D01*
X155797571Y-92700750D01*
X155815341Y-92699000D01*
X157284659Y-92699000D01*
X157302429Y-92700750D01*
G37*
G36*
X154243642Y-91459781D02*
G01*
X154389414Y-91520162D01*
X154389416Y-91520163D01*
X154520608Y-91607822D01*
X154632178Y-91719392D01*
X154639412Y-91730219D01*
X154719838Y-91850586D01*
X154780219Y-91996358D01*
X154811000Y-92151107D01*
X154811000Y-92308893D01*
X154780219Y-92463642D01*
X154719838Y-92609414D01*
X154719837Y-92609416D01*
X154632178Y-92740608D01*
X154520608Y-92852178D01*
X154389416Y-92939837D01*
X154389415Y-92939838D01*
X154389414Y-92939838D01*
X154243642Y-93000219D01*
X154088893Y-93031000D01*
X153931107Y-93031000D01*
X153776358Y-93000219D01*
X153630586Y-92939838D01*
X153630585Y-92939838D01*
X153630584Y-92939837D01*
X153499392Y-92852178D01*
X153387822Y-92740608D01*
X153300163Y-92609416D01*
X153300162Y-92609414D01*
X153239781Y-92463642D01*
X153209000Y-92308893D01*
X153209000Y-92151107D01*
X153239781Y-91996358D01*
X153300162Y-91850586D01*
X153380588Y-91730219D01*
X153387822Y-91719392D01*
X153499392Y-91607822D01*
X153630584Y-91520163D01*
X153630586Y-91520162D01*
X153776358Y-91459781D01*
X153931107Y-91429000D01*
X154088893Y-91429000D01*
X154243642Y-91459781D01*
G37*
G36*
X149960721Y-89700174D02*
G01*
X150060995Y-89741709D01*
X150060996Y-89741710D01*
X150151242Y-89802010D01*
X150227990Y-89878758D01*
X150227991Y-89878760D01*
X150288291Y-89969005D01*
X150329826Y-90069279D01*
X150351000Y-90175730D01*
X150351000Y-90284270D01*
X150329826Y-90390721D01*
X150288291Y-90490995D01*
X150258345Y-90535812D01*
X150227990Y-90581242D01*
X150151242Y-90657990D01*
X150119816Y-90678988D01*
X150058336Y-90720068D01*
X150039394Y-90735614D01*
X150023849Y-90754556D01*
X150012298Y-90776167D01*
X150005185Y-90799615D01*
X150002783Y-90824002D01*
X150005185Y-90848388D01*
X150012298Y-90871837D01*
X150023849Y-90893447D01*
X150039395Y-90912389D01*
X150058337Y-90927934D01*
X150079948Y-90939485D01*
X150103396Y-90946598D01*
X150127782Y-90949000D01*
X150334659Y-90949000D01*
X150342674Y-90949789D01*
X150344471Y-90950335D01*
X150346129Y-90951221D01*
X150347585Y-90952415D01*
X150348779Y-90953871D01*
X150349665Y-90955529D01*
X150350211Y-90957326D01*
X150351000Y-90965341D01*
X150351000Y-92034659D01*
X150350211Y-92042674D01*
X150349665Y-92044471D01*
X150348779Y-92046129D01*
X150347585Y-92047585D01*
X150346129Y-92048779D01*
X150344471Y-92049665D01*
X150342674Y-92050211D01*
X150334659Y-92051000D01*
X149265341Y-92051000D01*
X149257326Y-92050211D01*
X149255529Y-92049665D01*
X149253871Y-92048779D01*
X149252415Y-92047585D01*
X149251221Y-92046129D01*
X149250335Y-92044471D01*
X149249789Y-92042674D01*
X149249000Y-92034659D01*
X149249000Y-90965341D01*
X149249789Y-90957326D01*
X149250335Y-90955529D01*
X149251221Y-90953871D01*
X149252415Y-90952415D01*
X149253871Y-90951221D01*
X149255529Y-90950335D01*
X149257326Y-90949789D01*
X149265341Y-90949000D01*
X149472218Y-90949000D01*
X149496604Y-90946598D01*
X149520053Y-90939485D01*
X149541664Y-90927934D01*
X149560606Y-90912389D01*
X149576151Y-90893447D01*
X149587702Y-90871836D01*
X149594815Y-90848387D01*
X149597217Y-90824001D01*
X149594815Y-90799615D01*
X149587702Y-90776166D01*
X149576151Y-90754555D01*
X149560606Y-90735613D01*
X149541664Y-90720068D01*
X149480184Y-90678988D01*
X149448758Y-90657990D01*
X149372010Y-90581242D01*
X149341655Y-90535812D01*
X149311709Y-90490995D01*
X149270174Y-90390721D01*
X149249000Y-90284270D01*
X149249000Y-90175730D01*
X149270174Y-90069279D01*
X149311709Y-89969005D01*
X149372009Y-89878760D01*
X149372010Y-89878758D01*
X149448758Y-89802010D01*
X149539004Y-89741710D01*
X149539005Y-89741709D01*
X149639279Y-89700174D01*
X149745730Y-89679000D01*
X149854270Y-89679000D01*
X149960721Y-89700174D01*
G37*
G36*
X156783642Y-90189781D02*
G01*
X156871929Y-90226351D01*
X156929416Y-90250163D01*
X157060608Y-90337822D01*
X157172178Y-90449392D01*
X157253090Y-90570487D01*
X157259838Y-90580586D01*
X157320219Y-90726358D01*
X157351000Y-90881107D01*
X157351000Y-91038893D01*
X157320219Y-91193642D01*
X157305231Y-91229825D01*
X157259837Y-91339416D01*
X157172178Y-91470608D01*
X157060608Y-91582178D01*
X156929416Y-91669837D01*
X156929415Y-91669838D01*
X156929414Y-91669838D01*
X156783642Y-91730219D01*
X156628893Y-91761000D01*
X156471107Y-91761000D01*
X156316358Y-91730219D01*
X156170586Y-91669838D01*
X156170585Y-91669838D01*
X156170584Y-91669837D01*
X156039392Y-91582178D01*
X155927822Y-91470608D01*
X155840163Y-91339416D01*
X155794769Y-91229825D01*
X155779781Y-91193642D01*
X155749000Y-91038893D01*
X155749000Y-90881107D01*
X155779781Y-90726358D01*
X155840162Y-90580586D01*
X155846910Y-90570487D01*
X155927822Y-90449392D01*
X156039392Y-90337822D01*
X156170584Y-90250163D01*
X156228071Y-90226351D01*
X156316358Y-90189781D01*
X156471107Y-90159000D01*
X156628893Y-90159000D01*
X156783642Y-90189781D01*
G37*
G36*
X91576355Y-90352140D02*
G01*
X91640118Y-90358420D01*
X91730904Y-90385960D01*
X91762836Y-90395646D01*
X91875925Y-90456094D01*
X91975054Y-90537446D01*
X92056406Y-90636575D01*
X92116854Y-90749664D01*
X92118338Y-90754556D01*
X92154080Y-90872382D01*
X92166649Y-91000000D01*
X92154080Y-91127618D01*
X92135675Y-91188290D01*
X92116854Y-91250336D01*
X92056406Y-91363425D01*
X91975054Y-91462554D01*
X91875925Y-91543906D01*
X91762836Y-91604354D01*
X91751403Y-91607822D01*
X91640118Y-91641580D01*
X91576355Y-91647860D01*
X91544474Y-91651000D01*
X90780526Y-91651000D01*
X90748645Y-91647860D01*
X90684882Y-91641580D01*
X90573597Y-91607822D01*
X90562164Y-91604354D01*
X90449075Y-91543906D01*
X90349946Y-91462554D01*
X90268594Y-91363425D01*
X90208146Y-91250336D01*
X90189325Y-91188290D01*
X90170920Y-91127618D01*
X90158351Y-91000000D01*
X90170920Y-90872382D01*
X90206662Y-90754556D01*
X90208146Y-90749664D01*
X90268594Y-90636575D01*
X90349946Y-90537446D01*
X90449075Y-90456094D01*
X90562164Y-90395646D01*
X90594096Y-90385960D01*
X90684882Y-90358420D01*
X90748645Y-90352140D01*
X90780526Y-90349000D01*
X91544474Y-90349000D01*
X91576355Y-90352140D01*
G37*
G36*
X98431000Y-90372218D02*
G01*
X98433402Y-90396604D01*
X98440515Y-90420053D01*
X98452066Y-90441664D01*
X98467611Y-90460606D01*
X98486553Y-90476151D01*
X98508164Y-90487702D01*
X98531613Y-90494815D01*
X98555999Y-90497217D01*
X98580385Y-90494815D01*
X98603834Y-90487702D01*
X98625445Y-90476151D01*
X98644387Y-90460606D01*
X98659932Y-90441664D01*
X98715554Y-90358420D01*
X98722010Y-90348758D01*
X98798758Y-90272010D01*
X98867092Y-90226351D01*
X98889005Y-90211709D01*
X98989279Y-90170174D01*
X99095730Y-90149000D01*
X99204270Y-90149000D01*
X99310721Y-90170174D01*
X99410995Y-90211709D01*
X99432908Y-90226351D01*
X99501242Y-90272010D01*
X99577990Y-90348758D01*
X99584446Y-90358420D01*
X99638291Y-90439005D01*
X99669516Y-90514389D01*
X99681067Y-90536000D01*
X99696612Y-90554941D01*
X99715554Y-90570487D01*
X99737165Y-90582038D01*
X99760614Y-90589151D01*
X99785000Y-90591553D01*
X99809386Y-90589151D01*
X99832835Y-90582038D01*
X99854446Y-90570487D01*
X99873387Y-90554942D01*
X99888933Y-90536000D01*
X99900484Y-90514389D01*
X99931709Y-90439005D01*
X99985554Y-90358420D01*
X99992010Y-90348758D01*
X100068758Y-90272010D01*
X100137092Y-90226351D01*
X100159005Y-90211709D01*
X100259279Y-90170174D01*
X100365730Y-90149000D01*
X100474270Y-90149000D01*
X100580721Y-90170174D01*
X100680995Y-90211709D01*
X100702908Y-90226351D01*
X100771242Y-90272010D01*
X100847990Y-90348758D01*
X100854446Y-90358420D01*
X100908291Y-90439005D01*
X100939516Y-90514389D01*
X100951067Y-90536000D01*
X100966612Y-90554941D01*
X100985554Y-90570487D01*
X101007165Y-90582038D01*
X101030614Y-90589151D01*
X101055000Y-90591553D01*
X101079386Y-90589151D01*
X101102835Y-90582038D01*
X101124446Y-90570487D01*
X101143387Y-90554942D01*
X101158933Y-90536000D01*
X101170484Y-90514389D01*
X101201709Y-90439005D01*
X101255554Y-90358420D01*
X101262010Y-90348758D01*
X101338758Y-90272010D01*
X101407092Y-90226351D01*
X101429005Y-90211709D01*
X101529279Y-90170174D01*
X101635730Y-90149000D01*
X101744270Y-90149000D01*
X101850721Y-90170174D01*
X101950995Y-90211709D01*
X101972908Y-90226351D01*
X102041242Y-90272010D01*
X102117990Y-90348758D01*
X102124446Y-90358420D01*
X102178291Y-90439005D01*
X102209516Y-90514389D01*
X102221067Y-90536000D01*
X102236612Y-90554941D01*
X102255554Y-90570487D01*
X102277165Y-90582038D01*
X102300614Y-90589151D01*
X102325000Y-90591553D01*
X102349386Y-90589151D01*
X102372835Y-90582038D01*
X102394446Y-90570487D01*
X102413387Y-90554942D01*
X102428933Y-90536000D01*
X102440484Y-90514389D01*
X102471709Y-90439005D01*
X102525554Y-90358420D01*
X102532010Y-90348758D01*
X102608758Y-90272010D01*
X102677092Y-90226351D01*
X102699005Y-90211709D01*
X102799279Y-90170174D01*
X102905730Y-90149000D01*
X103014270Y-90149000D01*
X103120721Y-90170174D01*
X103220995Y-90211709D01*
X103242908Y-90226351D01*
X103311242Y-90272010D01*
X103387990Y-90348758D01*
X103394446Y-90358420D01*
X103448291Y-90439005D01*
X103479516Y-90514389D01*
X103491067Y-90536000D01*
X103506612Y-90554941D01*
X103525554Y-90570487D01*
X103547165Y-90582038D01*
X103570614Y-90589151D01*
X103595000Y-90591553D01*
X103619386Y-90589151D01*
X103642835Y-90582038D01*
X103664446Y-90570487D01*
X103683387Y-90554942D01*
X103698933Y-90536000D01*
X103710484Y-90514389D01*
X103741709Y-90439005D01*
X103795554Y-90358420D01*
X103802010Y-90348758D01*
X103878758Y-90272010D01*
X103947092Y-90226351D01*
X103969005Y-90211709D01*
X104069279Y-90170174D01*
X104175730Y-90149000D01*
X104284270Y-90149000D01*
X104390721Y-90170174D01*
X104490995Y-90211709D01*
X104512908Y-90226351D01*
X104581242Y-90272010D01*
X104657990Y-90348758D01*
X104664446Y-90358420D01*
X104718291Y-90439005D01*
X104759826Y-90539279D01*
X104781000Y-90645730D01*
X104781000Y-90754270D01*
X104759826Y-90860721D01*
X104718291Y-90960995D01*
X104718290Y-90960996D01*
X104657990Y-91051242D01*
X104581242Y-91127990D01*
X104535812Y-91158345D01*
X104490995Y-91188291D01*
X104390721Y-91229826D01*
X104284270Y-91251000D01*
X104175730Y-91251000D01*
X104069279Y-91229826D01*
X103969005Y-91188291D01*
X103924188Y-91158345D01*
X103878758Y-91127990D01*
X103802010Y-91051242D01*
X103741710Y-90960996D01*
X103741709Y-90960995D01*
X103710484Y-90885611D01*
X103698933Y-90864000D01*
X103683388Y-90845059D01*
X103664446Y-90829513D01*
X103642835Y-90817962D01*
X103619386Y-90810849D01*
X103595000Y-90808447D01*
X103570614Y-90810849D01*
X103547165Y-90817962D01*
X103525554Y-90829513D01*
X103506613Y-90845058D01*
X103491067Y-90864000D01*
X103479516Y-90885611D01*
X103448291Y-90960995D01*
X103448290Y-90960996D01*
X103387990Y-91051242D01*
X103311242Y-91127990D01*
X103265812Y-91158345D01*
X103220995Y-91188291D01*
X103120721Y-91229826D01*
X103014270Y-91251000D01*
X102905730Y-91251000D01*
X102799279Y-91229826D01*
X102699005Y-91188291D01*
X102654188Y-91158345D01*
X102608758Y-91127990D01*
X102532010Y-91051242D01*
X102471710Y-90960996D01*
X102471709Y-90960995D01*
X102440484Y-90885611D01*
X102428933Y-90864000D01*
X102413388Y-90845059D01*
X102394446Y-90829513D01*
X102372835Y-90817962D01*
X102349386Y-90810849D01*
X102325000Y-90808447D01*
X102300614Y-90810849D01*
X102277165Y-90817962D01*
X102255554Y-90829513D01*
X102236613Y-90845058D01*
X102221067Y-90864000D01*
X102209516Y-90885611D01*
X102178291Y-90960995D01*
X102178290Y-90960996D01*
X102117990Y-91051242D01*
X102041242Y-91127990D01*
X101995812Y-91158345D01*
X101950995Y-91188291D01*
X101850721Y-91229826D01*
X101744270Y-91251000D01*
X101635730Y-91251000D01*
X101529279Y-91229826D01*
X101429005Y-91188291D01*
X101384188Y-91158345D01*
X101338758Y-91127990D01*
X101262010Y-91051242D01*
X101201710Y-90960996D01*
X101201709Y-90960995D01*
X101170484Y-90885611D01*
X101158933Y-90864000D01*
X101143388Y-90845059D01*
X101124446Y-90829513D01*
X101102835Y-90817962D01*
X101079386Y-90810849D01*
X101055000Y-90808447D01*
X101030614Y-90810849D01*
X101007165Y-90817962D01*
X100985554Y-90829513D01*
X100966613Y-90845058D01*
X100951067Y-90864000D01*
X100939516Y-90885611D01*
X100908291Y-90960995D01*
X100908290Y-90960996D01*
X100847990Y-91051242D01*
X100771242Y-91127990D01*
X100725812Y-91158345D01*
X100680995Y-91188291D01*
X100580721Y-91229826D01*
X100474270Y-91251000D01*
X100365730Y-91251000D01*
X100259279Y-91229826D01*
X100159005Y-91188291D01*
X100114188Y-91158345D01*
X100068758Y-91127990D01*
X99992010Y-91051242D01*
X99931710Y-90960996D01*
X99931709Y-90960995D01*
X99900484Y-90885611D01*
X99888933Y-90864000D01*
X99873388Y-90845059D01*
X99854446Y-90829513D01*
X99832835Y-90817962D01*
X99809386Y-90810849D01*
X99785000Y-90808447D01*
X99760614Y-90810849D01*
X99737165Y-90817962D01*
X99715554Y-90829513D01*
X99696613Y-90845058D01*
X99681067Y-90864000D01*
X99669516Y-90885611D01*
X99638291Y-90960995D01*
X99638290Y-90960996D01*
X99577990Y-91051242D01*
X99501242Y-91127990D01*
X99455812Y-91158345D01*
X99410995Y-91188291D01*
X99310721Y-91229826D01*
X99204270Y-91251000D01*
X99095730Y-91251000D01*
X98989279Y-91229826D01*
X98889005Y-91188291D01*
X98844188Y-91158345D01*
X98798758Y-91127990D01*
X98722010Y-91051242D01*
X98699149Y-91017028D01*
X98659932Y-90958336D01*
X98644386Y-90939394D01*
X98625444Y-90923849D01*
X98603833Y-90912298D01*
X98580385Y-90905185D01*
X98555998Y-90902783D01*
X98531612Y-90905185D01*
X98508163Y-90912298D01*
X98486553Y-90923849D01*
X98467611Y-90939395D01*
X98452066Y-90958337D01*
X98440515Y-90979948D01*
X98433402Y-91003396D01*
X98431000Y-91027782D01*
X98431000Y-91251000D01*
X97329000Y-91251000D01*
X97329000Y-90149000D01*
X98431000Y-90149000D01*
X98431000Y-90372218D01*
G37*
G36*
X94088848Y-89253820D02*
G01*
X94088850Y-89253821D01*
X94088851Y-89253821D01*
X94230074Y-89312317D01*
X94230077Y-89312319D01*
X94357169Y-89397239D01*
X94465261Y-89505331D01*
X94535938Y-89611107D01*
X94550183Y-89632426D01*
X94606709Y-89768893D01*
X94608680Y-89773652D01*
X94638500Y-89923569D01*
X94638500Y-90076431D01*
X94611592Y-90211710D01*
X94608679Y-90226351D01*
X94550183Y-90367574D01*
X94550181Y-90367577D01*
X94465261Y-90494669D01*
X94357169Y-90602761D01*
X94274511Y-90657991D01*
X94230074Y-90687683D01*
X94088851Y-90746179D01*
X94088850Y-90746179D01*
X94088848Y-90746180D01*
X93938931Y-90776000D01*
X93786069Y-90776000D01*
X93636152Y-90746180D01*
X93636150Y-90746179D01*
X93636149Y-90746179D01*
X93494926Y-90687683D01*
X93450489Y-90657991D01*
X93367831Y-90602761D01*
X93259739Y-90494669D01*
X93174819Y-90367577D01*
X93174817Y-90367574D01*
X93116321Y-90226351D01*
X93113409Y-90211710D01*
X93086500Y-90076431D01*
X93086500Y-89923569D01*
X93116320Y-89773652D01*
X93118291Y-89768893D01*
X93174817Y-89632426D01*
X93189062Y-89611107D01*
X93259739Y-89505331D01*
X93367831Y-89397239D01*
X93494923Y-89312319D01*
X93494926Y-89312317D01*
X93636149Y-89253821D01*
X93636150Y-89253821D01*
X93636152Y-89253820D01*
X93786069Y-89224000D01*
X93938931Y-89224000D01*
X94088848Y-89253820D01*
G37*
G36*
X154243642Y-88919781D02*
G01*
X154389414Y-88980162D01*
X154389416Y-88980163D01*
X154520608Y-89067822D01*
X154632178Y-89179392D01*
X154681909Y-89253821D01*
X154719838Y-89310586D01*
X154780219Y-89456358D01*
X154811000Y-89611107D01*
X154811000Y-89768893D01*
X154780219Y-89923642D01*
X154719894Y-90069279D01*
X154719837Y-90069416D01*
X154632178Y-90200608D01*
X154520608Y-90312178D01*
X154389416Y-90399837D01*
X154389415Y-90399838D01*
X154389414Y-90399838D01*
X154243642Y-90460219D01*
X154088893Y-90491000D01*
X153931107Y-90491000D01*
X153776358Y-90460219D01*
X153630586Y-90399838D01*
X153630585Y-90399838D01*
X153630584Y-90399837D01*
X153499392Y-90312178D01*
X153387822Y-90200608D01*
X153300163Y-90069416D01*
X153300106Y-90069279D01*
X153239781Y-89923642D01*
X153209000Y-89768893D01*
X153209000Y-89611107D01*
X153239781Y-89456358D01*
X153300162Y-89310586D01*
X153338091Y-89253821D01*
X153387822Y-89179392D01*
X153499392Y-89067822D01*
X153630584Y-88980163D01*
X153630586Y-88980162D01*
X153776358Y-88919781D01*
X153931107Y-88889000D01*
X154088893Y-88889000D01*
X154243642Y-88919781D01*
G37*
G36*
X156783642Y-87649781D02*
G01*
X156929414Y-87710162D01*
X156929416Y-87710163D01*
X157060608Y-87797822D01*
X157172178Y-87909392D01*
X157179412Y-87920219D01*
X157259838Y-88040586D01*
X157320219Y-88186358D01*
X157351000Y-88341107D01*
X157351000Y-88498893D01*
X157320219Y-88653642D01*
X157259838Y-88799414D01*
X157259837Y-88799416D01*
X157172178Y-88930608D01*
X157060608Y-89042178D01*
X156929416Y-89129837D01*
X156929415Y-89129838D01*
X156929414Y-89129838D01*
X156783642Y-89190219D01*
X156628893Y-89221000D01*
X156471107Y-89221000D01*
X156316358Y-89190219D01*
X156170586Y-89129838D01*
X156170585Y-89129838D01*
X156170584Y-89129837D01*
X156039392Y-89042178D01*
X155927822Y-88930608D01*
X155840163Y-88799416D01*
X155840162Y-88799414D01*
X155779781Y-88653642D01*
X155749000Y-88498893D01*
X155749000Y-88341107D01*
X155779781Y-88186358D01*
X155840162Y-88040586D01*
X155920588Y-87920219D01*
X155927822Y-87909392D01*
X156039392Y-87797822D01*
X156170584Y-87710163D01*
X156170586Y-87710162D01*
X156316358Y-87649781D01*
X156471107Y-87619000D01*
X156628893Y-87619000D01*
X156783642Y-87649781D01*
G37*
G36*
X154243642Y-86379781D02*
G01*
X154389414Y-86440162D01*
X154389416Y-86440163D01*
X154520608Y-86527822D01*
X154632178Y-86639392D01*
X154639412Y-86650219D01*
X154719838Y-86770586D01*
X154780219Y-86916358D01*
X154811000Y-87071107D01*
X154811000Y-87228893D01*
X154780219Y-87383642D01*
X154719838Y-87529414D01*
X154719837Y-87529416D01*
X154632178Y-87660608D01*
X154520608Y-87772178D01*
X154389416Y-87859837D01*
X154389415Y-87859838D01*
X154389414Y-87859838D01*
X154243642Y-87920219D01*
X154088893Y-87951000D01*
X153931107Y-87951000D01*
X153776358Y-87920219D01*
X153630586Y-87859838D01*
X153630585Y-87859838D01*
X153630584Y-87859837D01*
X153499392Y-87772178D01*
X153387822Y-87660608D01*
X153300163Y-87529416D01*
X153300162Y-87529414D01*
X153239781Y-87383642D01*
X153209000Y-87228893D01*
X153209000Y-87071107D01*
X153239781Y-86916358D01*
X153300162Y-86770586D01*
X153380588Y-86650219D01*
X153387822Y-86639392D01*
X153499392Y-86527822D01*
X153630584Y-86440163D01*
X153630586Y-86440162D01*
X153776358Y-86379781D01*
X153931107Y-86349000D01*
X154088893Y-86349000D01*
X154243642Y-86379781D01*
G37*
G36*
X156783642Y-85109781D02*
G01*
X156929414Y-85170162D01*
X156929416Y-85170163D01*
X157060608Y-85257822D01*
X157172178Y-85369392D01*
X157255886Y-85494671D01*
X157259838Y-85500586D01*
X157320219Y-85646358D01*
X157351000Y-85801107D01*
X157351000Y-85958893D01*
X157320219Y-86113642D01*
X157259838Y-86259414D01*
X157259837Y-86259416D01*
X157172178Y-86390608D01*
X157060608Y-86502178D01*
X156929416Y-86589837D01*
X156929415Y-86589838D01*
X156929414Y-86589838D01*
X156783642Y-86650219D01*
X156628893Y-86681000D01*
X156471107Y-86681000D01*
X156316358Y-86650219D01*
X156170586Y-86589838D01*
X156170585Y-86589838D01*
X156170584Y-86589837D01*
X156039392Y-86502178D01*
X155927822Y-86390608D01*
X155840163Y-86259416D01*
X155840162Y-86259414D01*
X155779781Y-86113642D01*
X155749000Y-85958893D01*
X155749000Y-85801107D01*
X155779781Y-85646358D01*
X155840162Y-85500586D01*
X155844114Y-85494671D01*
X155927822Y-85369392D01*
X156039392Y-85257822D01*
X156170584Y-85170163D01*
X156170586Y-85170162D01*
X156316358Y-85109781D01*
X156471107Y-85079000D01*
X156628893Y-85079000D01*
X156783642Y-85109781D01*
G37*
G36*
X94088848Y-84253820D02*
G01*
X94088850Y-84253821D01*
X94088851Y-84253821D01*
X94230074Y-84312317D01*
X94230077Y-84312319D01*
X94357169Y-84397239D01*
X94465261Y-84505331D01*
X94550181Y-84632423D01*
X94550183Y-84632426D01*
X94573572Y-84688893D01*
X94608680Y-84773652D01*
X94638500Y-84923569D01*
X94638500Y-85076431D01*
X94619856Y-85170163D01*
X94608679Y-85226351D01*
X94550183Y-85367574D01*
X94550181Y-85367577D01*
X94465261Y-85494669D01*
X94357169Y-85602761D01*
X94291921Y-85646358D01*
X94230074Y-85687683D01*
X94088851Y-85746179D01*
X94088850Y-85746179D01*
X94088848Y-85746180D01*
X93938931Y-85776000D01*
X93786069Y-85776000D01*
X93636152Y-85746180D01*
X93636150Y-85746179D01*
X93636149Y-85746179D01*
X93494926Y-85687683D01*
X93433079Y-85646358D01*
X93367831Y-85602761D01*
X93259739Y-85494669D01*
X93174819Y-85367577D01*
X93174817Y-85367574D01*
X93116321Y-85226351D01*
X93105145Y-85170163D01*
X93086500Y-85076431D01*
X93086500Y-84923569D01*
X93116320Y-84773652D01*
X93151428Y-84688893D01*
X93174817Y-84632426D01*
X93174819Y-84632423D01*
X93259739Y-84505331D01*
X93367831Y-84397239D01*
X93494923Y-84312319D01*
X93494926Y-84312317D01*
X93636149Y-84253821D01*
X93636150Y-84253821D01*
X93636152Y-84253820D01*
X93786069Y-84224000D01*
X93938931Y-84224000D01*
X94088848Y-84253820D01*
G37*
G36*
X154243642Y-83839781D02*
G01*
X154389414Y-83900162D01*
X154389416Y-83900163D01*
X154520608Y-83987822D01*
X154632178Y-84099392D01*
X154719837Y-84230584D01*
X154719838Y-84230586D01*
X154780219Y-84376358D01*
X154811000Y-84531107D01*
X154811000Y-84688893D01*
X154780219Y-84843642D01*
X154719838Y-84989414D01*
X154719837Y-84989416D01*
X154632178Y-85120608D01*
X154520608Y-85232178D01*
X154389416Y-85319837D01*
X154389415Y-85319838D01*
X154389414Y-85319838D01*
X154243642Y-85380219D01*
X154088893Y-85411000D01*
X153931107Y-85411000D01*
X153776358Y-85380219D01*
X153630586Y-85319838D01*
X153630585Y-85319838D01*
X153630584Y-85319837D01*
X153499392Y-85232178D01*
X153387822Y-85120608D01*
X153300163Y-84989416D01*
X153300162Y-84989414D01*
X153239781Y-84843642D01*
X153209000Y-84688893D01*
X153209000Y-84531107D01*
X153239781Y-84376358D01*
X153300162Y-84230586D01*
X153300163Y-84230584D01*
X153387822Y-84099392D01*
X153499392Y-83987822D01*
X153630584Y-83900163D01*
X153630586Y-83900162D01*
X153776358Y-83839781D01*
X153931107Y-83809000D01*
X154088893Y-83809000D01*
X154243642Y-83839781D01*
G37*
G36*
X163275256Y-81731298D02*
G01*
X163381579Y-81752447D01*
X163682042Y-81876903D01*
X163952451Y-82057585D01*
X164182415Y-82287549D01*
X164182416Y-82287551D01*
X164363098Y-82557960D01*
X164487553Y-82858422D01*
X164551000Y-83177389D01*
X164551000Y-83502611D01*
X164524353Y-83636574D01*
X164487553Y-83821579D01*
X164363097Y-84122042D01*
X164182415Y-84392451D01*
X163952451Y-84622415D01*
X163682042Y-84803097D01*
X163381579Y-84927553D01*
X163275256Y-84948702D01*
X163062611Y-84991000D01*
X162737389Y-84991000D01*
X162524744Y-84948702D01*
X162418421Y-84927553D01*
X162117958Y-84803097D01*
X161847549Y-84622415D01*
X161617585Y-84392451D01*
X161436903Y-84122042D01*
X161312447Y-83821579D01*
X161275647Y-83636574D01*
X161249000Y-83502611D01*
X161249000Y-83177389D01*
X161312447Y-82858422D01*
X161436902Y-82557960D01*
X161617584Y-82287551D01*
X161617585Y-82287549D01*
X161847549Y-82057585D01*
X162117958Y-81876903D01*
X162418421Y-81752447D01*
X162524744Y-81731298D01*
X162737389Y-81689000D01*
X163062611Y-81689000D01*
X163275256Y-81731298D01*
G37*
G36*
X91576355Y-83352140D02*
G01*
X91640118Y-83358420D01*
X91730904Y-83385960D01*
X91762836Y-83395646D01*
X91875925Y-83456094D01*
X91975054Y-83537446D01*
X92056406Y-83636575D01*
X92116854Y-83749664D01*
X92116855Y-83749668D01*
X92154080Y-83872382D01*
X92166649Y-84000000D01*
X92154080Y-84127618D01*
X92126540Y-84218404D01*
X92116854Y-84250336D01*
X92056406Y-84363425D01*
X91975054Y-84462554D01*
X91875925Y-84543906D01*
X91762836Y-84604354D01*
X91730904Y-84614040D01*
X91640118Y-84641580D01*
X91576355Y-84647860D01*
X91544474Y-84651000D01*
X90780526Y-84651000D01*
X90748645Y-84647860D01*
X90684882Y-84641580D01*
X90594096Y-84614040D01*
X90562164Y-84604354D01*
X90449075Y-84543906D01*
X90349946Y-84462554D01*
X90268594Y-84363425D01*
X90208146Y-84250336D01*
X90198460Y-84218404D01*
X90170920Y-84127618D01*
X90158351Y-84000000D01*
X90170920Y-83872382D01*
X90208145Y-83749668D01*
X90208146Y-83749664D01*
X90268594Y-83636575D01*
X90349946Y-83537446D01*
X90449075Y-83456094D01*
X90562164Y-83395646D01*
X90594096Y-83385960D01*
X90684882Y-83358420D01*
X90748645Y-83352140D01*
X90780526Y-83349000D01*
X91544474Y-83349000D01*
X91576355Y-83352140D01*
G37*
M02*
