M48
; DRILL file {KiCad (5.1.5)-3} date 01/04/2020 20:02:04
; FORMAT={-:-/ absolute / metric / decimal}
; #@! TF.CreationDate,2020-04-01T20:02:04+02:00
; #@! TF.GenerationSoftware,Kicad,Pcbnew,(5.1.5)-3
; #@! TF.FileFunction,NonPlated,1,2,NPTH
FMAT,2
METRIC
T1C3.200
%
G90
G05
T1
X162.9Y-83.34
X162.9Y-94.77
T0
M30
